565840 558443 421
846824 147989 525
989690 484638 525
298190 38833 443
232947 112020 443
795444 189617 509
316945 277792 389
176543 678495 509
598557 651127 509
902565 563337 525
463265 428551 444
207492 308508 443
180122 328188 443
712172 37928 509
76256 165081 383
693945 939583 525
222752 222064 293
186387 253604 443
862226 639672 525
999683 89456 525
719333 182180 509
325986 200106 443
700630 34422 509
310779 41779 443
136213 513411 470
220746 806744 509
707213 585820 509
12329 399012 443
249515 201005 443
864632 356281 525
94895 66146 351
15531 84754 351
662648 560772 509
88799 376781 443
360427 958161 525
165676 671641 509
516159 494668 470
545891 155527 470
923124 507608 525
313084 191107 443
95710 904756 525
118652 188399 383
458453 201257 449
667472 383410 509
992569 663012 525
217319 54457 386
753921 199582 509
843728 903457 445
628389 831805 504
957778 323749 525
867876 966353 507
755738 108730 509
940325 892288 507
986385 164512 525
515320 558080 452
496865 167675 449
523101 682233 509
898328 820047 525
838727 587871 525
894072 683551 525
624101 668820 509
717576 455611 509
846474 98021 525
10601 28633 308
567425 253878 470
762170 851177 525
228533 367785 443
917778 481286 525
726280 335172 509
370001 466305 449
510476 472897 426
322142 191361 443
309719 702990 509
429294 466490 444
984449 554968 525
411269 68990 449
180824 719121 509
417964 755148 509
794019 200314 509
329070 361041 441
770374 849756 525
653952 498479 509
363788 837247 509
409391 272991 441
144627 515525 470
46896 526208 470
950135 726379 525
762805 29914 509
566587 295769 470
175732 910197 525
117265 714105 509
220063 31333 386
763995 986006 525
299156 440600 449
981373 937310 507
622829 802735 509
78063 713129 509
388906 852519 525
390354 550095 470
997207 131688 525
667227 527481 509
616223 205171 470
453429 486408 444
400955 722484 509
825249 396867 509
700069 434380 509
671517 373551 509
86927 72289 351
74390 791241 509
675258 589 509
54844 717924 509
212364 48996 383
391187 674900 509
772046 34091 509
641175 840140 525
959574 994059 458
870173 288663 525
863015 967699 507
763666 14500 509
93979 790675 509
556310 460560 470
610765 718694 509
773508 895371 525
473339 944846 525
311134 647155 509
786484 359031 509
739473 211793 509
289669 784686 509
691999 703414 411
685538 47341 509
74045 383436 443
846648 53841 525
589931 622265 447
32551 781460 509
734750 982706 525
12416 999471 525
537523 440071 470
620126 493529 470
510433 215238 449
619644 63453 470
290332 897970 525
788216 779516 375
944390 857226 507
759313 232288 509
577121 866953 525
531461 325322 470
706563 76686 509
371714 738084 509
68959 432139 449
485747 271714 449
526282 514223 439
932288 295708 525
333382 190152 443
709091 596652 509
508395 423855 444
722382 951787 525
815056 9175 509
803751 985024 525
696708 67315 509
673023 672147 367
768679 638985 504
135111 132905 344
895785 247592 525
380189 824973 509
971571 935238 507
293014 369661 441
907724 281225 525
361213 923088 525
341225 576709 470
850143 494420 525
148803 425341 449
998638 137427 525
856115 780923 525
649654 586031 509
564538 494523 470
588774 168491 470
231045 444525 449
620852 398900 470
559999 184595 470
229470 594182 470
624110 338122 470
621267 705546 509
678476 772439 504
57175 977109 525
127922 656343 509
637474 757098 504
856375 537154 525
938513 677041 525
233186 127 443
274290 330517 389
753666 768416 468
36842 994173 525
685207 89540 509
659458 923889 525
532881 678049 509
346796 486223 449
141401 632401 509
334763 598794 470
840920 667019 525
867764 204803 525
875176 326302 525
191840 868642 525
631403 42239 509
838897 370439 525
994630 277665 525
490837 612620 470
938705 439236 525
422965 592692 470
995838 504525 525
31667 2939 308
736698 184832 509
854125 415919 525
832500 534735 509
656942 231436 509
267217 478894 449
38422 272312 443
117059 781205 509
705693 776278 468
519138 4209 470
329798 154068 443
947738 191694 525
202025 287835 443
738242 527674 509
214327 686209 509
339748 485102 449
640277 835962 504
274223 922483 525
246525 111570 443
585634 940188 525
542428 313196 470
348178 639038 509
238483 968943 525
930847 271689 525
970905 387880 525
403563 615722 470
410348 547082 470
548891 353742 470
712652 604658 509
314907 84289 443
743980 344735 509
430228 701788 509
520639 516485 439
280443 824797 509
507595 781883 509
180354 156662 370
699122 934138 525
47841 859903 525
609520 594382 403
705616 941373 525
748406 596776 509
