998000 999999 396
49284 50285 296
44333 45333 314
661801 546858 509
555234 683258 509
369916 959206 525
765608 732462 424
322911 717458 509
18600 785447 509
248499 52443 443
759501 920387 525
569274 832052 509
971071 67197 525
338455 348214 441
76182 98445 351
976520 31329 525
173235 622120 470
330674 582881 470
565648 939530 525
983063 891526 507
532002 329982 470
532106 863588 525
677836 915317 525
806774 703613 504
223175 296417 443
984751 914105 507
484999 364118 449
573957 708406 509
110195 223350 386
664504 526850 509
441293 426890 400
71069 865391 525
681421 985719 525
758670 108596 509
767993 70340 509
728873 161187 509
526076 982213 525
553587 52759 470
270791 753831 509
992526 764436 525
681504 551743 509
40409 948840 525
479992 903015 525
189510 345853 443
678624 401389 509
337621 581771 470
334467 442820 449
676721 198226 509
502723 335614 449
68516 455646 449
522456 730206 509
209933 624920 470
686829 96527 509
754600 109109 509
109490 219148 386
28580 358969 443
766041 560966 509
247129 585251 470
295042 157184 443
414176 253146 449
726061 76992 509
546644 684694 509
484110 883670 525
743142 171587 509
376939 713430 509
941213 65483 525
283829 884724 525
56337 603578 470
259932 587997 470
216653 189943 386
786556 684780 504
6603 411632 449
116906 521368 470
842324 797277 525
480909 5391 449
819820 178440 509
17879 615008 470
318770 253590 407
92362 620695 470
359213 794045 509
429155 884493 525
837632 341477 509
598757 609754 403
417938 767046 509
724771 946266 525
848040 535942 525
901773 208078 525
442146 981458 525
158522 772126 509
299590 752083 509
251831 424067 449
848225 144000 525
184051 821284 509
127095 618485 470
791235 635323 504
314978 529350 470
92478 913446 525
867849 300257 525
890317 271301 525
915705 469874 525
534601 623926 452
848489 345479 525
696465 662021 442
488882 240870 449
149887 324747 443
858047 177864 525
701546 303647 509
305233 113921 443
438494 377205 449
611602 811493 509
391027 264023 441
327392 842810 525
717694 16583 509
911675 524810 525
879693 599024 525
945366 871099 507
272123 827752 509
599396 484842 470
124662 43736 354
906192 443640 525
751707 825016 468
809381 368681 509
854490 915390 476
835366 154556 509
251487 289391 407
592979 572226 434
181793 380247 443
854996 155633 525
990842 877540 507
667991 346102 509
123688 874496 525
56728 402609 443
769636 745919 468
743893 59751 509
984377 584112 525
468941 488895 413
578727 570713 390
827383 121002 509
563437 29667 470
422438 399994 449
88168 620616 470
590036 621285 447
458937 143374 449
150686 782003 509
870842 590861 525
678922 197596 509
301928 250693 407
851984 583787 525
294826 391634 441
560374 208420 470
374953 934964 525
549262 682938 509
418178 886110 525
106726 835590 509
186412 753126 509
217178 281823 443
500467 6193 449
994129 988203 352
406967 555773 470
146483 962073 525
937552 287352 525
408373 967521 525
108561 279613 443
902851 600003 525
999849 113614 525
303125 595589 470
496310 618473 470
906340 914899 476
942918 162915 525
529812 101085 470
168170 808606 509
376005 836385 509
55746 906500 525
334758 955504 525
879308 208431 525
731387 753795 424
671866 349411 509
876223 171479 525
522451 481263 470
807828 524942 509
70981 636049 509
712153 71085 509
312985 164045 443
897132 322984 525
196527 669143 509
425387 69203 449
302568 970373 525
441180 682339 509
356889 311455 441
345840 62785 443
280691 657727 509
343606 489174 449
909768 930045 476
923673 321721 525
47639 245377 443
969381 93729 525
341146 815106 509
145931 35893 375
909012 321501 525
141044 107327 349
56125 251751 443
349488 877200 525
313137 197861 443
865113 799667 525
203549 352228 443
449701 8388 449
892201 924194 476
82673 345081 443
165413 389973 443
146159 139168 375
414927 115391 449
287003 500908 449
761349 316131 509
145564 199310 383
560238 313608 470
457620 294895 449
390979 533266 470
6003 988492 525
728302 923281 525
273030 481427 449
982306 469557 525
890354 757998 525
272950 274344 358
628520 472057 509
140649 686958 509
907615 22991 525
504088 295485 449
409036 193054 443
20188 890265 525
239822 210411 443
794842 89717 509
394909 901969 525
546977 421921 470
812836 371014 509
519503 356393 470
46650 103938 351
248992 591863 470
348014 671839 509
465054 609682 470
577945 547996 421
6837 592427 470
148906 640680 509
19307 596449 470
221797 390408 443
487607 329064 449
314546 280300 389
898340 110015 525
867598 464306 525
389645 17446 443
913590 26997 525
678681 80673 509
731060 343715 509
263172 495509 449
273902 720523 509
596014 999389 525
144873 885257 525
961793 471158 525
828032 655172 504
988715 473009 525
104310 621454 470
312473 854233 525
677035 928666 525
427952 882454 525
904096 654772 525
209754 753690 509
774196 692662 504
18288 120469 354
14950 945744 525
713006 532269 509
426404 779373 509
30716 771421 509
250439 150797 443
471309 523477 470
164357 588671 470
510278 422034 444
867056 623106 525
528056 410827 470
264000 153311 443
196714 17703 383
415758 113754 449
393173 540432 470
275720 467507 449
347000 296956 441
552077 945982 525
70312 649558 509
793118 648452 504
166429 578259 470
9875 883141 525
647637 35011 509
104886 889153 525
684306 95934 509
140637 174353 383
284921 766990 509
980659 717816 525
730918 306545 509
333761 266309 407
338953 474026 449
136091 616640 470
578757 637726 509
350061 897463 525
